%YAML 1.1
%TAG !u! tag:unity3d.com,2011:
--- !u!114 &11400000
MonoBehaviour:
  m_ObjectHideFlags: 0
  m_CorrespondingSourceObject: {fileID: 0}
  m_PrefabInstance: {fileID: 0}
  m_PrefabAsset: {fileID: 0}
  m_GameObject: {fileID: 0}
  m_Enabled: 1
  m_EditorHideFlags: 0
  m_Script: {fileID: 11500000, guid: fc62d797492382d47b5e45897103bcb9, type: 3}
  m_Name: Level13
  m_EditorClassIdentifier: 
  duration: 15
  spawnCooldown: 6.25
  spawnProbabilities:
  - 0
  - 5
  - 5
  - 5
  - 10
  - 15
  - 15
  - 15
  - 15
  - 15
